module github.com/gravity-technologies/platform/backend/lib/websocket/manager

go 1.19

require (
	github.com/gorilla/websocket v1.5.0
	github.com/gravity-technologies/platform/backend/proto/go/websocket v0.0.0-00010101000000-000000000000
	github.com/stretchr/testify v1.8.2
)

require (
	github.com/davecgh/go-spew v1.1.1 // indirect
	github.com/pmezard/go-difflib v1.0.0 // indirect
	google.golang.org/protobuf v1.30.0 // indirect
	gopkg.in/yaml.v3 v3.0.1 // indirect
)

replace github.com/gravity-technologies/platform/backend/proto/go/websocket => ../../../proto/go/websocket
